[gd_scene load_steps=4 format=2]

[ext_resource path="res://res/bullet.png" type="Texture" id=1]

[sub_resource type="GDScript" id=1]

script/source = "extends Area2D

const SPEED = 1500

func _process(delta):
	position.y -= SPEED * delta

	for thing in get_overlapping_areas():
		thing.destroy()
		queue_free()

	if position.y < -100:
		queue_free()
"

[sub_resource type="RectangleShape2D" id=2]

custom_solver_bias = 0.0
extents = Vector2( 5, 15 )

[node name="Bullet" type="Area2D" index="0"]

z_index = -1
input_pickable = true
gravity_vec = Vector2( 0, 1 )
gravity = 98.0
linear_damp = 0.1
angular_damp = 1.0
collision_layer = 0
collision_mask = 1025
audio_bus_override = false
audio_bus_name = "Master"
script = SubResource( 1 )
_sections_unfolded = [ "Collision", "Linear", "Transform", "Z Index" ]

[node name="Sprite" type="Sprite" parent="." index="0"]

texture = ExtResource( 1 )
_sections_unfolded = [ "Transform", "Z Index" ]

[node name="CollisionShape2D" type="CollisionShape2D" parent="." index="1"]

shape = SubResource( 2 )
_sections_unfolded = [ "Transform" ]


